{
 "page":1,
 "total_results":10000,
 "total_pages":500,
 "results":[
  {
    "popularity":422.288,
    "vote_count":5518,
    "video":false,
    "poster_path":"\/udDclJoHjfjb8Ekgsd4FDteOkCU.jpg",
    "id":475557,
    "adult":false,
    "backdrop_path":"\/n6bUvigpRFqSwmPp1m2YADdbRBc.jpg",
    "original_language":"en",
    "original_title":"Joker",
    "genre_ids":[80, 18, 53],
    "title":"Joker",
    "vote_average":8.4,
    "overview":"During the 1980s, a failed stand-up comedian is driven insane and turns to a life of crime and chaos in Gotham City while becoming an infamous psychopathic crime figure.",
    "release_date":"2019-10-02"
  },
  {
   "popularity":261.975,
   "vote_count":562,
   "video":false,
   "poster_path":"\/vqzNJRH4YyquRiWxCCOH0aXggHI.jpg",
   "id":290859,
   "adult":false,
   "backdrop_path":"\/a6cDxdwaQIFjSkXf7uskg78ZyTq.jpg",
   "original_language":"en",
   "original_title":"Terminator: Dark Fate",
   "genre_ids":[28,878],"title":"Terminator: Dark Fate","vote_average":6.4,"overview":"More than two decades have passed since Sarah Connor prevented Judgment Day, changed the future, and re-wrote the fate of the human race. Dani Ramos is living a simple life in Mexico City with her brother and father when a highly advanced and deadly new Terminator – a Rev-9 – travels back through time to hunt and kill her. Dani's survival depends on her joining forces with two warriors: Grace, an enhanced super-soldier from the future, and a battle-hardened Sarah Connor. As the Rev-9 ruthlessly destroys everything and everyone in its path on the hunt for Dani, the three are led to a T-800 from Sarah’s past that may be their last best hope.","release_date":"2019-10-23"
  },
  {
   "popularity":195.531,"vote_count":30,"video":false,"poster_path":"\/h6Wi81XNXCjTAcdstiCLRykN3Pa.jpg","id":330457,"adult":false,"backdrop_path":"\/xJWPZIYOEFIjZpBL7SVBGnzRYXp.jpg","original_language":"en","original_title":"Frozen II","genre_ids":[12,16,35,14,10402,10751],"title":"Frozen II","vote_average":5.4,"overview":"Elsa, Anna, Kristoff and Olaf are going far in the forest to know the truth about an ancient mystery of their kingdom.","release_date":"2019-11-20"},{"popularity":144.266,"vote_count":0,"video":false,"poster_path":"\/vn94LlNrbUWIZZyAdmvUepFBeaY.jpg","id":449924,"adult":false,"backdrop_path":"\/ekP6EVxL81lZ4ivcqPsoZ72rY0h.jpg","original_language":"cn","original_title":"葉問4","genre_ids":[28,18,36],"title":"Ip Man 4: The Finale","vote_average":0,"overview":"Ip Man 4 is an upcoming Hong Kong biographical martial arts film directed by Wilson Yip and produced by Raymond Wong. It is the fourth in the Ip Man film series based on the life of the Wing Chun grandmaster of the same name and features Donnie Yen reprising the role. The film began production in April 2018 and ended in July the same year.","release_date":"2019-12-20"
   },
  ]
}
